﻿color,nom,preu,marca
"plata","Nespresso DeLonghi Pixie EN125S - Cafetera de cápsulas","125,80","Nespresso"
"gris","Krups KP1201 - Cafetera Nestlé Dolce Gusto Mini Me, automática, 15 bares de presión","69,00","Krups"
"negro","DeLonghi Dolce Gusto Mini Me EDG 305 BG - Cafetera automática","69,00","DeLonghi"
"blanco","Nespresso Krups Inissia XN1001 - Cafetera de cápsulas","82,48","Nespresso"
"negro","DeLonghi Nespresso Inissia EN 80.B - Cafetera automática, 19 bares","72,00","Nespresso"
"rojo","DeLonghi Dolce Gusto Jovia EDG250.R - Cafetera, 15 bar","52,00","DeLonghi"
"rojo xxx","De'Longhi Dolce Gusto Piccolo EDG 200.R - Cafetera de cápsulas, 15 bar","49,15","DeLonghi"
"blanco","Nespresso DeLonghi Essenza EN97W - Cafetera de cápsulas","12,90","Nespresso"
"negro","DeLonghi Nespresso Citiz  - Cafetera monodosis (19 bares, Flow-stop, rejilla adaptable para vaso macchiato, modo ahorro energía)","141,80","Nespresso"
"rojo","Krups Nespresso Citiz Flow XN7405 - Cafetera monodosis de 19 bares, 2 programas de café personalizables, bandeja extraíble y autoapagado","123,82","Nespresso"
"rojo","Krups KP1006 - Cafetera Nestlé Dolce Gusto Piccolo, 15 bares de presión","59,00","Krups"
"azul","Bosch Tassimo Suny TAS3202 - Cafetera multibebidas automática de cápsulas con sistema SmartStart","49,00","Bosch"
"gris","Nespresso Krups Pixie XN3005 - Cafetera de cápsulas","109,99","Nespresso"
"antracita","Nespresso DeLonghi Expert&Milk EN355GAE - Cafetera de cápsulas","325,80","Nespresso"
"azul","Krups Nespresso Inissia - Cafetera, sistema Thermoblock de rápido calentamiento, incluye 16 cápsulas de café","85,82","Nespresso"
"rosa","Bosch TASSIMO VIVY 2 Independiente Totalmente automática Combi coffee maker","45,05","Bosch"
"blanco","Homgeek Mini Cafetera Capsulas De Expresso Máquina De Café Italiano Cappuccino Cafetera Portátil Para Viaje Molinillo Cafe Molinillo","39,99","Homgeek"
"blanco","Bosch TASSIMO Vivy TAS1254 – Cafetera multibebidas automática de cápsulas, diseño compacto","42,39","Bosch"
"rojo electrico","Nespresso Krups Pixie XN3006 - Cafetera de cápsulas","109,99","Nespresso"
"azul","DeLonghi Dolce Gusto Eclipse - Cafetera de cápsulas espresso monodosis, 15 bares, interfaz intuitivo automático, plato","139,00","DeLonghi"
"metal pulido","L-BEANS Cafeteras de Émbolo de Acero Inoxidable (600ml)","16,92","L-Beans"
"rojo","De'Longhi Dolce Gusto Melody 3 - Máquina de café (Flow Stop, Expresso, 15 Bar)","69,00","DeLonghi"
"blanco","Krups KP1101 Independiente Máquina de café en cápsulas 0.6L","53,58","Krups"
"negro",Nespresso DeLonghi Lattissima Touch EN550B - Cafetera de cápsulas","120,00","Nespresso"
"negro",Nespresso DeLonghi U EN110B - Cafetera de cápsulas","106,00","Nespresso"
"blanco",Nespresso Krups U XN2501 - Cafetera de cápsulas","109,99","Nespresso"